<?xml version="1.0" encoding="UTF-8"?>
<glyph name="Acircumflex.2" format="1">
  <advance width="288"/>
  <outline>
    <component base="circumflex" xOffset="12" yOffset="120"/>
    <component base="A.2"/>
  </outline>
  <lib>
    <dict>
      <key>com.schriftgestaltung.Glyphs.lastChange</key>
      <string>2019-04-26 20:29:54 +0000</string>
    </dict>
  </lib>
</glyph>
