<?xml version="1.0" encoding="UTF-8"?>
<glyph name="AE" format="1">
  <advance width="352"/>
  <unicode hex="00C6"/>
  <outline>
    <contour>
      <point x="278" y="0" type="line"/>
      <point x="204" y="0" type="line"/>
      <point x="157" y="370" type="line" smooth="yes"/>
      <point x="138" y="570" type="line" smooth="yes"/>
      <point x="127" y="570" type="line"/>
      <point x="111" y="628" type="line"/>
      <point x="67" y="730" type="line"/>
      <point x="166" y="730" type="line"/>
    </contour>
    <contour>
      <point x="127" y="570" type="line"/>
      <point x="90" y="0" type="line"/>
      <point x="0" y="0" type="line"/>
      <point x="128" y="730" type="line"/>
      <point x="156" y="730" type="line"/>
    </contour>
    <contour>
      <point x="180" y="205" type="line"/>
      <point x="86" y="205" type="line"/>
      <point x="86" y="225" type="line"/>
      <point x="180" y="225" type="line"/>
    </contour>
    <contour>
      <point x="143" y="665" type="line"/>
      <point x="143" y="730" type="line"/>
      <point x="327" y="730" type="line"/>
      <point x="327" y="665" type="line"/>
    </contour>
    <contour>
      <point x="300" y="374" type="line"/>
      <point x="205" y="374" type="line"/>
      <point x="205" y="396" type="line"/>
      <point x="300" y="396" type="line"/>
    </contour>
    <contour>
      <point x="215" y="0" type="line"/>
      <point x="215" y="65" type="line"/>
      <point x="337" y="65" type="line"/>
      <point x="337" y="0" type="line"/>
    </contour>
    <contour>
      <point x="501" y="0" type="move" name="bottom_right"/>
    </contour>
  </outline>
  <lib>
    <dict>
      <key>com.schriftgestaltung.Glyphs.lastChange</key>
      <string>2019-04-26 20:29:54 +0000</string>
      <key>com.typemytype.robofont.layerData</key>
      <dict>
        <key>background</key>
        <dict>
          <key>anchors</key>
          <array>
          </array>
          <key>components</key>
          <array>
          </array>
          <key>contours</key>
          <array>
            <dict>
              <key>points</key>
              <array>
                <dict>
                  <key>segmentType</key>
                  <string>line</string>
                  <key>smooth</key>
                  <integer>0</integer>
                  <key>x</key>
                  <integer>204</integer>
                  <key>y</key>
                  <integer>0</integer>
                </dict>
                <dict>
                  <key>segmentType</key>
                  <string>line</string>
                  <key>smooth</key>
                  <integer>1</integer>
                  <key>x</key>
                  <integer>157</integer>
                  <key>y</key>
                  <integer>370</integer>
                </dict>
                <dict>
                  <key>segmentType</key>
                  <string>line</string>
                  <key>smooth</key>
                  <integer>1</integer>
                  <key>x</key>
                  <integer>138</integer>
                  <key>y</key>
                  <integer>570</integer>
                </dict>
                <dict>
                  <key>segmentType</key>
                  <string>line</string>
                  <key>smooth</key>
                  <integer>0</integer>
                  <key>x</key>
                  <integer>127</integer>
                  <key>y</key>
                  <integer>570</integer>
                </dict>
                <dict>
                  <key>segmentType</key>
                  <string>line</string>
                  <key>smooth</key>
                  <integer>0</integer>
                  <key>x</key>
                  <integer>111</integer>
                  <key>y</key>
                  <integer>628</integer>
                </dict>
                <dict>
                  <key>segmentType</key>
                  <string>line</string>
                  <key>smooth</key>
                  <integer>0</integer>
                  <key>x</key>
                  <integer>67</integer>
                  <key>y</key>
                  <integer>730</integer>
                </dict>
                <dict>
                  <key>segmentType</key>
                  <string>line</string>
                  <key>smooth</key>
                  <integer>0</integer>
                  <key>x</key>
                  <integer>166</integer>
                  <key>y</key>
                  <integer>730</integer>
                </dict>
                <dict>
                  <key>segmentType</key>
                  <string>line</string>
                  <key>smooth</key>
                  <integer>0</integer>
                  <key>x</key>
                  <integer>288</integer>
                  <key>y</key>
                  <integer>0</integer>
                </dict>
              </array>
            </dict>
            <dict>
              <key>points</key>
              <array>
                <dict>
                  <key>segmentType</key>
                  <string>line</string>
                  <key>smooth</key>
                  <integer>0</integer>
                  <key>x</key>
                  <integer>90</integer>
                  <key>y</key>
                  <integer>0</integer>
                </dict>
                <dict>
                  <key>segmentType</key>
                  <string>line</string>
                  <key>smooth</key>
                  <integer>0</integer>
                  <key>x</key>
                  <integer>0</integer>
                  <key>y</key>
                  <integer>0</integer>
                </dict>
                <dict>
                  <key>segmentType</key>
                  <string>line</string>
                  <key>smooth</key>
                  <integer>0</integer>
                  <key>x</key>
                  <integer>128</integer>
                  <key>y</key>
                  <integer>730</integer>
                </dict>
                <dict>
                  <key>segmentType</key>
                  <string>line</string>
                  <key>smooth</key>
                  <integer>0</integer>
                  <key>x</key>
                  <integer>156</integer>
                  <key>y</key>
                  <integer>730</integer>
                </dict>
                <dict>
                  <key>segmentType</key>
                  <string>line</string>
                  <key>smooth</key>
                  <integer>0</integer>
                  <key>x</key>
                  <integer>127</integer>
                  <key>y</key>
                  <integer>570</integer>
                </dict>
              </array>
            </dict>
            <dict>
              <key>points</key>
              <array>
                <dict>
                  <key>segmentType</key>
                  <string>line</string>
                  <key>smooth</key>
                  <integer>0</integer>
                  <key>x</key>
                  <integer>86</integer>
                  <key>y</key>
                  <integer>205</integer>
                </dict>
                <dict>
                  <key>segmentType</key>
                  <string>line</string>
                  <key>smooth</key>
                  <integer>0</integer>
                  <key>x</key>
                  <integer>86</integer>
                  <key>y</key>
                  <integer>225</integer>
                </dict>
                <dict>
                  <key>segmentType</key>
                  <string>line</string>
                  <key>smooth</key>
                  <integer>0</integer>
                  <key>x</key>
                  <integer>180</integer>
                  <key>y</key>
                  <integer>225</integer>
                </dict>
                <dict>
                  <key>segmentType</key>
                  <string>line</string>
                  <key>smooth</key>
                  <integer>0</integer>
                  <key>x</key>
                  <integer>180</integer>
                  <key>y</key>
                  <integer>205</integer>
                </dict>
              </array>
            </dict>
            <dict>
              <key>points</key>
              <array>
                <dict>
                  <key>segmentType</key>
                  <string>line</string>
                  <key>smooth</key>
                  <integer>0</integer>
                  <key>x</key>
                  <integer>393</integer>
                  <key>y</key>
                  <integer>730</integer>
                </dict>
                <dict>
                  <key>segmentType</key>
                  <string>line</string>
                  <key>smooth</key>
                  <integer>0</integer>
                  <key>x</key>
                  <integer>393</integer>
                  <key>y</key>
                  <integer>0</integer>
                </dict>
                <dict>
                  <key>segmentType</key>
                  <string>line</string>
                  <key>smooth</key>
                  <integer>0</integer>
                  <key>x</key>
                  <integer>318</integer>
                  <key>y</key>
                  <integer>0</integer>
                </dict>
                <dict>
                  <key>segmentType</key>
                  <string>line</string>
                  <key>smooth</key>
                  <integer>0</integer>
                  <key>x</key>
                  <integer>318</integer>
                  <key>y</key>
                  <integer>730</integer>
                </dict>
              </array>
            </dict>
            <dict>
              <key>points</key>
              <array>
                <dict>
                  <key>segmentType</key>
                  <string>line</string>
                  <key>smooth</key>
                  <integer>0</integer>
                  <key>x</key>
                  <integer>329</integer>
                  <key>y</key>
                  <integer>730</integer>
                </dict>
                <dict>
                  <key>segmentType</key>
                  <string>line</string>
                  <key>smooth</key>
                  <integer>0</integer>
                  <key>x</key>
                  <integer>491</integer>
                  <key>y</key>
                  <integer>730</integer>
                </dict>
                <dict>
                  <key>segmentType</key>
                  <string>line</string>
                  <key>smooth</key>
                  <integer>0</integer>
                  <key>x</key>
                  <integer>491</integer>
                  <key>y</key>
                  <integer>665</integer>
                </dict>
                <dict>
                  <key>segmentType</key>
                  <string>line</string>
                  <key>smooth</key>
                  <integer>0</integer>
                  <key>x</key>
                  <integer>329</integer>
                  <key>y</key>
                  <integer>665</integer>
                </dict>
              </array>
            </dict>
            <dict>
              <key>points</key>
              <array>
                <dict>
                  <key>segmentType</key>
                  <string>line</string>
                  <key>smooth</key>
                  <integer>0</integer>
                  <key>x</key>
                  <integer>370</integer>
                  <key>y</key>
                  <integer>374</integer>
                </dict>
                <dict>
                  <key>segmentType</key>
                  <string>line</string>
                  <key>smooth</key>
                  <integer>0</integer>
                  <key>x</key>
                  <integer>370</integer>
                  <key>y</key>
                  <integer>396</integer>
                </dict>
                <dict>
                  <key>segmentType</key>
                  <string>line</string>
                  <key>smooth</key>
                  <integer>0</integer>
                  <key>x</key>
                  <integer>464</integer>
                  <key>y</key>
                  <integer>396</integer>
                </dict>
                <dict>
                  <key>segmentType</key>
                  <string>line</string>
                  <key>smooth</key>
                  <integer>0</integer>
                  <key>x</key>
                  <integer>464</integer>
                  <key>y</key>
                  <integer>374</integer>
                </dict>
              </array>
            </dict>
            <dict>
              <key>points</key>
              <array>
                <dict>
                  <key>segmentType</key>
                  <string>line</string>
                  <key>smooth</key>
                  <integer>0</integer>
                  <key>x</key>
                  <integer>329</integer>
                  <key>y</key>
                  <integer>65</integer>
                </dict>
                <dict>
                  <key>segmentType</key>
                  <string>line</string>
                  <key>smooth</key>
                  <integer>0</integer>
                  <key>x</key>
                  <integer>501</integer>
                  <key>y</key>
                  <integer>65</integer>
                </dict>
                <dict>
                  <key>segmentType</key>
                  <string>line</string>
                  <key>smooth</key>
                  <integer>0</integer>
                  <key>x</key>
                  <integer>501</integer>
                  <key>y</key>
                  <integer>0</integer>
                </dict>
                <dict>
                  <key>segmentType</key>
                  <string>line</string>
                  <key>smooth</key>
                  <integer>0</integer>
                  <key>x</key>
                  <integer>329</integer>
                  <key>y</key>
                  <integer>0</integer>
                </dict>
              </array>
            </dict>
          </array>
          <key>lib</key>
          <dict>
          </dict>
          <key>name</key>
          <string>AE</string>
          <key>unicodes</key>
          <array>
          </array>
          <key>width</key>
          <integer>352</integer>
        </dict>
      </dict>
    </dict>
  </lib>
</glyph>
