<?xml version="1.0" encoding="UTF-8"?>
<glyph name="bracketright.cap" format="1">
  <advance width="149"/>
  <outline>
    <component base="bracketright" yOffset="65"/>
  </outline>
  <lib>
    <dict>
      <key>public.markColor</key>
      <string>0.82,0.82,0.82,1</string>
    </dict>
  </lib>
</glyph>
