<?xml version="1.0" encoding="UTF-8"?>
<glyph name="emdash.cap" format="1">
  <advance width="950"/>
  <outline>
    <component base="emdash" yOffset="43"/>
  </outline>
  <lib>
    <dict>
      <key>com.schriftgestaltung.Glyphs.lastChange</key>
      <string>2019-04-26 20:29:54 +0000</string>
      <key>public.markColor</key>
      <string>0.82,0.82,0.82,1</string>
    </dict>
  </lib>
</glyph>
