<?xml version="1.0" encoding="UTF-8"?>
<glyph name="fl" format="1">
  <advance width="309"/>
  <unicode hex="FB02"/>
  <outline>
    <contour>
      <point x="121" y="629" type="curve"/>
      <point x="121" y="0" type="line"/>
      <point x="51" y="0" type="line"/>
      <point x="51" y="509" type="line" smooth="yes"/>
      <point x="51" y="622"/>
      <point x="128" y="730"/>
      <point x="203" y="730" type="curve"/>
      <point x="216" y="730" type="line"/>
      <point x="216" y="660" type="line"/>
      <point x="205" y="665"/>
      <point x="189" y="667"/>
      <point x="169" y="667" type="curve"/>
      <point x="140" y="667"/>
      <point x="121" y="659"/>
    </contour>
    <contour>
      <point x="179" y="600" type="line"/>
      <point x="179" y="549" type="line"/>
      <point x="8" y="549" type="line"/>
      <point x="8" y="600" type="line"/>
    </contour>
    <component base="l" xOffset="169"/>
  </outline>
  <lib>
    <dict>
      <key>com.schriftgestaltung.Glyphs.lastChange</key>
      <string>2019-04-26 20:29:54 +0000</string>
      <key>com.typemytype.robofont.layerData</key>
      <dict>
        <key>background</key>
        <dict>
          <key>anchors</key>
          <array>
          </array>
          <key>components</key>
          <array>
            <dict>
              <key>baseGlyph</key>
              <string>f</string>
              <key>transformation</key>
              <array>
                <integer>1</integer>
                <integer>0</integer>
                <integer>0</integer>
                <integer>1</integer>
                <integer>0</integer>
                <integer>0</integer>
              </array>
            </dict>
          </array>
          <key>contours</key>
          <array>
            <dict>
              <key>points</key>
              <array>
                <dict>
                  <key>segmentType</key>
                  <string>curve</string>
                  <key>smooth</key>
                  <integer>1</integer>
                  <key>x</key>
                  <integer>121</integer>
                  <key>y</key>
                  <integer>609</integer>
                </dict>
                <dict>
                  <key>segmentType</key>
                  <string>line</string>
                  <key>smooth</key>
                  <integer>0</integer>
                  <key>x</key>
                  <integer>121</integer>
                  <key>y</key>
                  <integer>0</integer>
                </dict>
                <dict>
                  <key>segmentType</key>
                  <string>line</string>
                  <key>smooth</key>
                  <integer>0</integer>
                  <key>x</key>
                  <integer>51</integer>
                  <key>y</key>
                  <integer>0</integer>
                </dict>
                <dict>
                  <key>segmentType</key>
                  <string>line</string>
                  <key>smooth</key>
                  <integer>1</integer>
                  <key>x</key>
                  <integer>51</integer>
                  <key>y</key>
                  <integer>489</integer>
                </dict>
                <dict>
                  <key>smooth</key>
                  <integer>0</integer>
                  <key>x</key>
                  <integer>51</integer>
                  <key>y</key>
                  <integer>639</integer>
                </dict>
                <dict>
                  <key>smooth</key>
                  <integer>0</integer>
                  <key>x</key>
                  <integer>150</integer>
                  <key>y</key>
                  <integer>730</integer>
                </dict>
                <dict>
                  <key>segmentType</key>
                  <string>curve</string>
                  <key>smooth</key>
                  <integer>1</integer>
                  <key>x</key>
                  <integer>260</integer>
                  <key>y</key>
                  <integer>730</integer>
                </dict>
                <dict>
                  <key>segmentType</key>
                  <string>line</string>
                  <key>smooth</key>
                  <integer>0</integer>
                  <key>x</key>
                  <integer>275</integer>
                  <key>y</key>
                  <integer>730</integer>
                </dict>
                <dict>
                  <key>segmentType</key>
                  <string>line</string>
                  <key>smooth</key>
                  <integer>0</integer>
                  <key>x</key>
                  <integer>275</integer>
                  <key>y</key>
                  <integer>639</integer>
                </dict>
                <dict>
                  <key>smooth</key>
                  <integer>0</integer>
                  <key>x</key>
                  <integer>252</integer>
                  <key>y</key>
                  <integer>650</integer>
                </dict>
                <dict>
                  <key>smooth</key>
                  <integer>0</integer>
                  <key>x</key>
                  <integer>226</integer>
                  <key>y</key>
                  <integer>657</integer>
                </dict>
                <dict>
                  <key>segmentType</key>
                  <string>curve</string>
                  <key>smooth</key>
                  <integer>1</integer>
                  <key>x</key>
                  <integer>193</integer>
                  <key>y</key>
                  <integer>657</integer>
                </dict>
                <dict>
                  <key>smooth</key>
                  <integer>0</integer>
                  <key>x</key>
                  <integer>148</integer>
                  <key>y</key>
                  <integer>657</integer>
                </dict>
                <dict>
                  <key>smooth</key>
                  <integer>0</integer>
                  <key>x</key>
                  <integer>121</integer>
                  <key>y</key>
                  <integer>643</integer>
                </dict>
              </array>
            </dict>
            <dict>
              <key>points</key>
              <array>
                <dict>
                  <key>segmentType</key>
                  <string>line</string>
                  <key>smooth</key>
                  <integer>0</integer>
                  <key>x</key>
                  <integer>274</integer>
                  <key>y</key>
                  <integer>600</integer>
                </dict>
                <dict>
                  <key>segmentType</key>
                  <string>line</string>
                  <key>smooth</key>
                  <integer>0</integer>
                  <key>x</key>
                  <integer>274</integer>
                  <key>y</key>
                  <integer>0</integer>
                </dict>
                <dict>
                  <key>segmentType</key>
                  <string>line</string>
                  <key>smooth</key>
                  <integer>0</integer>
                  <key>x</key>
                  <integer>204</integer>
                  <key>y</key>
                  <integer>0</integer>
                </dict>
                <dict>
                  <key>segmentType</key>
                  <string>line</string>
                  <key>smooth</key>
                  <integer>0</integer>
                  <key>x</key>
                  <integer>204</integer>
                  <key>y</key>
                  <integer>600</integer>
                </dict>
              </array>
            </dict>
            <dict>
              <key>points</key>
              <array>
                <dict>
                  <key>segmentType</key>
                  <string>move</string>
                  <key>smooth</key>
                  <integer>1</integer>
                  <key>x</key>
                  <integer>51</integer>
                  <key>y</key>
                  <integer>549</integer>
                </dict>
                <dict>
                  <key>segmentType</key>
                  <string>line</string>
                  <key>smooth</key>
                  <integer>0</integer>
                  <key>x</key>
                  <integer>8</integer>
                  <key>y</key>
                  <integer>549</integer>
                </dict>
                <dict>
                  <key>segmentType</key>
                  <string>line</string>
                  <key>smooth</key>
                  <integer>0</integer>
                  <key>x</key>
                  <integer>8</integer>
                  <key>y</key>
                  <integer>600</integer>
                </dict>
                <dict>
                  <key>segmentType</key>
                  <string>line</string>
                  <key>smooth</key>
                  <integer>0</integer>
                  <key>x</key>
                  <integer>121</integer>
                  <key>y</key>
                  <integer>600</integer>
                </dict>
                <dict>
                  <key>segmentType</key>
                  <string>line</string>
                  <key>smooth</key>
                  <integer>0</integer>
                  <key>x</key>
                  <integer>179</integer>
                  <key>y</key>
                  <integer>600</integer>
                </dict>
                <dict>
                  <key>segmentType</key>
                  <string>line</string>
                  <key>smooth</key>
                  <integer>0</integer>
                  <key>x</key>
                  <integer>179</integer>
                  <key>y</key>
                  <integer>549</integer>
                </dict>
                <dict>
                  <key>segmentType</key>
                  <string>line</string>
                  <key>smooth</key>
                  <integer>0</integer>
                  <key>x</key>
                  <integer>121</integer>
                  <key>y</key>
                  <integer>549</integer>
                </dict>
              </array>
            </dict>
          </array>
          <key>lib</key>
          <dict>
            <key>com.typemytype.robofont.layerData</key>
            <dict>
              <key>background</key>
              <dict>
                <key>anchors</key>
                <array>
                </array>
                <key>components</key>
                <array>
                </array>
                <key>contours</key>
                <array>
                  <dict>
                    <key>points</key>
                    <array>
                      <dict>
                        <key>segmentType</key>
                        <string>line</string>
                        <key>smooth</key>
                        <integer>0</integer>
                        <key>x</key>
                        <integer>616</integer>
                        <key>y</key>
                        <integer>643</integer>
                      </dict>
                      <dict>
                        <key>segmentType</key>
                        <string>line</string>
                        <key>smooth</key>
                        <integer>0</integer>
                        <key>x</key>
                        <integer>722</integer>
                        <key>y</key>
                        <integer>643</integer>
                      </dict>
                      <dict>
                        <key>segmentType</key>
                        <string>line</string>
                        <key>smooth</key>
                        <integer>0</integer>
                        <key>x</key>
                        <integer>722</integer>
                        <key>y</key>
                        <integer>694</integer>
                      </dict>
                      <dict>
                        <key>segmentType</key>
                        <string>line</string>
                        <key>smooth</key>
                        <integer>0</integer>
                        <key>x</key>
                        <integer>616</integer>
                        <key>y</key>
                        <integer>694</integer>
                      </dict>
                    </array>
                  </dict>
                  <dict>
                    <key>points</key>
                    <array>
                      <dict>
                        <key>segmentType</key>
                        <string>line</string>
                        <key>smooth</key>
                        <integer>0</integer>
                        <key>x</key>
                        <integer>704</integer>
                        <key>y</key>
                        <integer>600</integer>
                      </dict>
                      <dict>
                        <key>segmentType</key>
                        <string>line</string>
                        <key>smooth</key>
                        <integer>0</integer>
                        <key>x</key>
                        <integer>704</integer>
                        <key>y</key>
                        <integer>0</integer>
                      </dict>
                      <dict>
                        <key>segmentType</key>
                        <string>line</string>
                        <key>smooth</key>
                        <integer>0</integer>
                        <key>x</key>
                        <integer>634</integer>
                        <key>y</key>
                        <integer>0</integer>
                      </dict>
                      <dict>
                        <key>segmentType</key>
                        <string>line</string>
                        <key>smooth</key>
                        <integer>0</integer>
                        <key>x</key>
                        <integer>634</integer>
                        <key>y</key>
                        <integer>600</integer>
                      </dict>
                    </array>
                  </dict>
                  <dict>
                    <key>points</key>
                    <array>
                      <dict>
                        <key>segmentType</key>
                        <string>curve</string>
                        <key>smooth</key>
                        <integer>1</integer>
                        <key>x</key>
                        <integer>521</integer>
                        <key>y</key>
                        <integer>629</integer>
                      </dict>
                      <dict>
                        <key>segmentType</key>
                        <string>line</string>
                        <key>smooth</key>
                        <integer>0</integer>
                        <key>x</key>
                        <integer>521</integer>
                        <key>y</key>
                        <integer>0</integer>
                      </dict>
                      <dict>
                        <key>segmentType</key>
                        <string>line</string>
                        <key>smooth</key>
                        <integer>0</integer>
                        <key>x</key>
                        <integer>451</integer>
                        <key>y</key>
                        <integer>0</integer>
                      </dict>
                      <dict>
                        <key>segmentType</key>
                        <string>line</string>
                        <key>smooth</key>
                        <integer>1</integer>
                        <key>x</key>
                        <integer>451</integer>
                        <key>y</key>
                        <integer>509</integer>
                      </dict>
                      <dict>
                        <key>smooth</key>
                        <integer>0</integer>
                        <key>x</key>
                        <integer>451</integer>
                        <key>y</key>
                        <integer>622</integer>
                      </dict>
                      <dict>
                        <key>smooth</key>
                        <integer>0</integer>
                        <key>x</key>
                        <integer>543</integer>
                        <key>y</key>
                        <integer>730</integer>
                      </dict>
                      <dict>
                        <key>segmentType</key>
                        <string>curve</string>
                        <key>smooth</key>
                        <integer>1</integer>
                        <key>x</key>
                        <integer>632</integer>
                        <key>y</key>
                        <integer>730</integer>
                      </dict>
                      <dict>
                        <key>segmentType</key>
                        <string>line</string>
                        <key>smooth</key>
                        <integer>0</integer>
                        <key>x</key>
                        <integer>645</integer>
                        <key>y</key>
                        <integer>730</integer>
                      </dict>
                      <dict>
                        <key>segmentType</key>
                        <string>line</string>
                        <key>smooth</key>
                        <integer>0</integer>
                        <key>x</key>
                        <integer>645</integer>
                        <key>y</key>
                        <integer>643</integer>
                      </dict>
                      <dict>
                        <key>smooth</key>
                        <integer>0</integer>
                        <key>x</key>
                        <integer>627</integer>
                        <key>y</key>
                        <integer>651</integer>
                      </dict>
                      <dict>
                        <key>smooth</key>
                        <integer>0</integer>
                        <key>x</key>
                        <integer>601</integer>
                        <key>y</key>
                        <integer>657</integer>
                      </dict>
                      <dict>
                        <key>segmentType</key>
                        <string>curve</string>
                        <key>smooth</key>
                        <integer>1</integer>
                        <key>x</key>
                        <integer>569</integer>
                        <key>y</key>
                        <integer>657</integer>
                      </dict>
                      <dict>
                        <key>smooth</key>
                        <integer>0</integer>
                        <key>x</key>
                        <integer>540</integer>
                        <key>y</key>
                        <integer>657</integer>
                      </dict>
                      <dict>
                        <key>smooth</key>
                        <integer>0</integer>
                        <key>x</key>
                        <integer>521</integer>
                        <key>y</key>
                        <integer>651</integer>
                      </dict>
                    </array>
                  </dict>
                  <dict>
                    <key>points</key>
                    <array>
                      <dict>
                        <key>segmentType</key>
                        <string>move</string>
                        <key>smooth</key>
                        <integer>1</integer>
                        <key>x</key>
                        <integer>451</integer>
                        <key>y</key>
                        <integer>549</integer>
                      </dict>
                      <dict>
                        <key>segmentType</key>
                        <string>line</string>
                        <key>smooth</key>
                        <integer>0</integer>
                        <key>x</key>
                        <integer>408</integer>
                        <key>y</key>
                        <integer>549</integer>
                      </dict>
                      <dict>
                        <key>segmentType</key>
                        <string>line</string>
                        <key>smooth</key>
                        <integer>0</integer>
                        <key>x</key>
                        <integer>408</integer>
                        <key>y</key>
                        <integer>600</integer>
                      </dict>
                      <dict>
                        <key>segmentType</key>
                        <string>line</string>
                        <key>smooth</key>
                        <integer>0</integer>
                        <key>x</key>
                        <integer>521</integer>
                        <key>y</key>
                        <integer>600</integer>
                      </dict>
                      <dict>
                        <key>segmentType</key>
                        <string>line</string>
                        <key>smooth</key>
                        <integer>0</integer>
                        <key>x</key>
                        <integer>609</integer>
                        <key>y</key>
                        <integer>600</integer>
                      </dict>
                      <dict>
                        <key>segmentType</key>
                        <string>line</string>
                        <key>smooth</key>
                        <integer>0</integer>
                        <key>x</key>
                        <integer>609</integer>
                        <key>y</key>
                        <integer>549</integer>
                      </dict>
                      <dict>
                        <key>segmentType</key>
                        <string>line</string>
                        <key>smooth</key>
                        <integer>0</integer>
                        <key>x</key>
                        <integer>521</integer>
                        <key>y</key>
                        <integer>549</integer>
                      </dict>
                    </array>
                  </dict>
                  <dict>
                    <key>points</key>
                    <array>
                      <dict>
                        <key>segmentType</key>
                        <string>curve</string>
                        <key>smooth</key>
                        <integer>1</integer>
                        <key>x</key>
                        <integer>121</integer>
                        <key>y</key>
                        <integer>609</integer>
                      </dict>
                      <dict>
                        <key>segmentType</key>
                        <string>line</string>
                        <key>smooth</key>
                        <integer>0</integer>
                        <key>x</key>
                        <integer>121</integer>
                        <key>y</key>
                        <integer>0</integer>
                      </dict>
                      <dict>
                        <key>segmentType</key>
                        <string>line</string>
                        <key>smooth</key>
                        <integer>0</integer>
                        <key>x</key>
                        <integer>51</integer>
                        <key>y</key>
                        <integer>0</integer>
                      </dict>
                      <dict>
                        <key>segmentType</key>
                        <string>line</string>
                        <key>smooth</key>
                        <integer>1</integer>
                        <key>x</key>
                        <integer>51</integer>
                        <key>y</key>
                        <integer>489</integer>
                      </dict>
                      <dict>
                        <key>smooth</key>
                        <integer>0</integer>
                        <key>x</key>
                        <integer>51</integer>
                        <key>y</key>
                        <integer>645</integer>
                      </dict>
                      <dict>
                        <key>smooth</key>
                        <integer>0</integer>
                        <key>x</key>
                        <integer>159</integer>
                        <key>y</key>
                        <integer>740</integer>
                      </dict>
                      <dict>
                        <key>segmentType</key>
                        <string>curve</string>
                        <key>smooth</key>
                        <integer>1</integer>
                        <key>x</key>
                        <integer>263</integer>
                        <key>y</key>
                        <integer>740</integer>
                      </dict>
                      <dict>
                        <key>smooth</key>
                        <integer>0</integer>
                        <key>x</key>
                        <integer>280</integer>
                        <key>y</key>
                        <integer>740</integer>
                      </dict>
                      <dict>
                        <key>smooth</key>
                        <integer>0</integer>
                        <key>x</key>
                        <integer>292</integer>
                        <key>y</key>
                        <integer>738</integer>
                      </dict>
                      <dict>
                        <key>segmentType</key>
                        <string>curve</string>
                        <key>smooth</key>
                        <integer>0</integer>
                        <key>x</key>
                        <integer>305</integer>
                        <key>y</key>
                        <integer>733</integer>
                      </dict>
                      <dict>
                        <key>segmentType</key>
                        <string>line</string>
                        <key>smooth</key>
                        <integer>0</integer>
                        <key>x</key>
                        <integer>305</integer>
                        <key>y</key>
                        <integer>649</integer>
                      </dict>
                      <dict>
                        <key>smooth</key>
                        <integer>0</integer>
                        <key>x</key>
                        <integer>276</integer>
                        <key>y</key>
                        <integer>663</integer>
                      </dict>
                      <dict>
                        <key>smooth</key>
                        <integer>0</integer>
                        <key>x</key>
                        <integer>238</integer>
                        <key>y</key>
                        <integer>667</integer>
                      </dict>
                      <dict>
                        <key>segmentType</key>
                        <string>curve</string>
                        <key>smooth</key>
                        <integer>1</integer>
                        <key>x</key>
                        <integer>193</integer>
                        <key>y</key>
                        <integer>667</integer>
                      </dict>
                      <dict>
                        <key>smooth</key>
                        <integer>0</integer>
                        <key>x</key>
                        <integer>148</integer>
                        <key>y</key>
                        <integer>667</integer>
                      </dict>
                      <dict>
                        <key>smooth</key>
                        <integer>0</integer>
                        <key>x</key>
                        <integer>121</integer>
                        <key>y</key>
                        <integer>650</integer>
                      </dict>
                    </array>
                  </dict>
                  <dict>
                    <key>points</key>
                    <array>
                      <dict>
                        <key>segmentType</key>
                        <string>line</string>
                        <key>smooth</key>
                        <integer>0</integer>
                        <key>x</key>
                        <integer>304</integer>
                        <key>y</key>
                        <integer>600</integer>
                      </dict>
                      <dict>
                        <key>segmentType</key>
                        <string>line</string>
                        <key>smooth</key>
                        <integer>0</integer>
                        <key>x</key>
                        <integer>304</integer>
                        <key>y</key>
                        <integer>0</integer>
                      </dict>
                      <dict>
                        <key>segmentType</key>
                        <string>line</string>
                        <key>smooth</key>
                        <integer>0</integer>
                        <key>x</key>
                        <integer>234</integer>
                        <key>y</key>
                        <integer>0</integer>
                      </dict>
                      <dict>
                        <key>segmentType</key>
                        <string>line</string>
                        <key>smooth</key>
                        <integer>0</integer>
                        <key>x</key>
                        <integer>234</integer>
                        <key>y</key>
                        <integer>600</integer>
                      </dict>
                    </array>
                  </dict>
                  <dict>
                    <key>points</key>
                    <array>
                      <dict>
                        <key>segmentType</key>
                        <string>move</string>
                        <key>smooth</key>
                        <integer>1</integer>
                        <key>x</key>
                        <integer>51</integer>
                        <key>y</key>
                        <integer>549</integer>
                      </dict>
                      <dict>
                        <key>segmentType</key>
                        <string>line</string>
                        <key>smooth</key>
                        <integer>0</integer>
                        <key>x</key>
                        <integer>8</integer>
                        <key>y</key>
                        <integer>549</integer>
                      </dict>
                      <dict>
                        <key>segmentType</key>
                        <string>line</string>
                        <key>smooth</key>
                        <integer>0</integer>
                        <key>x</key>
                        <integer>8</integer>
                        <key>y</key>
                        <integer>600</integer>
                      </dict>
                      <dict>
                        <key>segmentType</key>
                        <string>line</string>
                        <key>smooth</key>
                        <integer>0</integer>
                        <key>x</key>
                        <integer>121</integer>
                        <key>y</key>
                        <integer>600</integer>
                      </dict>
                      <dict>
                        <key>segmentType</key>
                        <string>line</string>
                        <key>smooth</key>
                        <integer>0</integer>
                        <key>x</key>
                        <integer>209</integer>
                        <key>y</key>
                        <integer>600</integer>
                      </dict>
                      <dict>
                        <key>segmentType</key>
                        <string>line</string>
                        <key>smooth</key>
                        <integer>0</integer>
                        <key>x</key>
                        <integer>209</integer>
                        <key>y</key>
                        <integer>549</integer>
                      </dict>
                      <dict>
                        <key>segmentType</key>
                        <string>line</string>
                        <key>smooth</key>
                        <integer>0</integer>
                        <key>x</key>
                        <integer>121</integer>
                        <key>y</key>
                        <integer>549</integer>
                      </dict>
                    </array>
                  </dict>
                </array>
                <key>lib</key>
                <dict>
                  <key>com.typemytype.robofont.layerData</key>
                  <dict>
                    <key>background</key>
                    <dict>
                      <key>anchors</key>
                      <array>
                      </array>
                      <key>components</key>
                      <array>
                      </array>
                      <key>contours</key>
                      <array>
                        <dict>
                          <key>points</key>
                          <array>
                            <dict>
                              <key>segmentType</key>
                              <string>curve</string>
                              <key>smooth</key>
                              <integer>1</integer>
                              <key>x</key>
                              <integer>121</integer>
                              <key>y</key>
                              <integer>629</integer>
                            </dict>
                            <dict>
                              <key>segmentType</key>
                              <string>line</string>
                              <key>smooth</key>
                              <integer>0</integer>
                              <key>x</key>
                              <integer>121</integer>
                              <key>y</key>
                              <integer>0</integer>
                            </dict>
                            <dict>
                              <key>segmentType</key>
                              <string>line</string>
                              <key>smooth</key>
                              <integer>0</integer>
                              <key>x</key>
                              <integer>51</integer>
                              <key>y</key>
                              <integer>0</integer>
                            </dict>
                            <dict>
                              <key>segmentType</key>
                              <string>line</string>
                              <key>smooth</key>
                              <integer>1</integer>
                              <key>x</key>
                              <integer>51</integer>
                              <key>y</key>
                              <integer>471</integer>
                            </dict>
                            <dict>
                              <key>smooth</key>
                              <integer>0</integer>
                              <key>x</key>
                              <integer>51</integer>
                              <key>y</key>
                              <integer>627</integer>
                            </dict>
                            <dict>
                              <key>smooth</key>
                              <integer>0</integer>
                              <key>x</key>
                              <integer>148</integer>
                              <key>y</key>
                              <integer>740</integer>
                            </dict>
                            <dict>
                              <key>segmentType</key>
                              <string>curve</string>
                              <key>smooth</key>
                              <integer>1</integer>
                              <key>x</key>
                              <integer>223</integer>
                              <key>y</key>
                              <integer>740</integer>
                            </dict>
                            <dict>
                              <key>smooth</key>
                              <integer>0</integer>
                              <key>x</key>
                              <integer>232</integer>
                              <key>y</key>
                              <integer>740</integer>
                            </dict>
                            <dict>
                              <key>smooth</key>
                              <integer>0</integer>
                              <key>x</key>
                              <integer>237</integer>
                              <key>y</key>
                              <integer>739</integer>
                            </dict>
                            <dict>
                              <key>segmentType</key>
                              <string>curve</string>
                              <key>smooth</key>
                              <integer>0</integer>
                              <key>x</key>
                              <integer>245</integer>
                              <key>y</key>
                              <integer>737</integer>
                            </dict>
                            <dict>
                              <key>segmentType</key>
                              <string>line</string>
                              <key>smooth</key>
                              <integer>0</integer>
                              <key>x</key>
                              <integer>245</integer>
                              <key>y</key>
                              <integer>653</integer>
                            </dict>
                            <dict>
                              <key>smooth</key>
                              <integer>0</integer>
                              <key>x</key>
                              <integer>227</integer>
                              <key>y</key>
                              <integer>661</integer>
                            </dict>
                            <dict>
                              <key>smooth</key>
                              <integer>0</integer>
                              <key>x</key>
                              <integer>201</integer>
                              <key>y</key>
                              <integer>667</integer>
                            </dict>
                            <dict>
                              <key>segmentType</key>
                              <string>curve</string>
                              <key>smooth</key>
                              <integer>1</integer>
                              <key>x</key>
                              <integer>169</integer>
                              <key>y</key>
                              <integer>667</integer>
                            </dict>
                            <dict>
                              <key>smooth</key>
                              <integer>0</integer>
                              <key>x</key>
                              <integer>140</integer>
                              <key>y</key>
                              <integer>667</integer>
                            </dict>
                            <dict>
                              <key>smooth</key>
                              <integer>0</integer>
                              <key>x</key>
                              <integer>121</integer>
                              <key>y</key>
                              <integer>659</integer>
                            </dict>
                          </array>
                        </dict>
                        <dict>
                          <key>points</key>
                          <array>
                            <dict>
                              <key>segmentType</key>
                              <string>move</string>
                              <key>smooth</key>
                              <integer>0</integer>
                              <key>x</key>
                              <integer>51</integer>
                              <key>y</key>
                              <integer>416</integer>
                            </dict>
                            <dict>
                              <key>segmentType</key>
                              <string>line</string>
                              <key>smooth</key>
                              <integer>1</integer>
                              <key>x</key>
                              <integer>51</integer>
                              <key>y</key>
                              <integer>491</integer>
                            </dict>
                            <dict>
                              <key>smooth</key>
                              <integer>0</integer>
                              <key>x</key>
                              <integer>51</integer>
                              <key>y</key>
                              <integer>538</integer>
                            </dict>
                            <dict>
                              <key>smooth</key>
                              <integer>0</integer>
                              <key>x</key>
                              <integer>42</integer>
                              <key>y</key>
                              <integer>549</integer>
                            </dict>
                            <dict>
                              <key>segmentType</key>
                              <string>curve</string>
                              <key>smooth</key>
                              <integer>0</integer>
                              <key>x</key>
                              <integer>5</integer>
                              <key>y</key>
                              <integer>567</integer>
                            </dict>
                            <dict>
                              <key>segmentType</key>
                              <string>line</string>
                              <key>smooth</key>
                              <integer>0</integer>
                              <key>x</key>
                              <integer>5</integer>
                              <key>y</key>
                              <integer>600</integer>
                            </dict>
                            <dict>
                              <key>segmentType</key>
                              <string>line</string>
                              <key>smooth</key>
                              <integer>0</integer>
                              <key>x</key>
                              <integer>121</integer>
                              <key>y</key>
                              <integer>600</integer>
                            </dict>
                            <dict>
                              <key>segmentType</key>
                              <string>line</string>
                              <key>smooth</key>
                              <integer>0</integer>
                              <key>x</key>
                              <integer>213</integer>
                              <key>y</key>
                              <integer>600</integer>
                            </dict>
                            <dict>
                              <key>segmentType</key>
                              <string>line</string>
                              <key>smooth</key>
                              <integer>0</integer>
                              <key>x</key>
                              <integer>213</integer>
                              <key>y</key>
                              <integer>558</integer>
                            </dict>
                            <dict>
                              <key>segmentType</key>
                              <string>line</string>
                              <key>smooth</key>
                              <integer>1</integer>
                              <key>x</key>
                              <integer>140</integer>
                              <key>y</key>
                              <integer>536</integer>
                            </dict>
                            <dict>
                              <key>smooth</key>
                              <integer>0</integer>
                              <key>x</key>
                              <integer>126</integer>
                              <key>y</key>
                              <integer>532</integer>
                            </dict>
                            <dict>
                              <key>smooth</key>
                              <integer>0</integer>
                              <key>x</key>
                              <integer>121</integer>
                              <key>y</key>
                              <integer>521</integer>
                            </dict>
                            <dict>
                              <key>segmentType</key>
                              <string>curve</string>
                              <key>smooth</key>
                              <integer>1</integer>
                              <key>x</key>
                              <integer>121</integer>
                              <key>y</key>
                              <integer>506</integer>
                            </dict>
                          </array>
                        </dict>
                        <dict>
                          <key>points</key>
                          <array>
                            <dict>
                              <key>segmentType</key>
                              <string>curve</string>
                              <key>smooth</key>
                              <integer>1</integer>
                              <key>x</key>
                              <integer>121</integer>
                              <key>y</key>
                              <integer>629</integer>
                            </dict>
                            <dict>
                              <key>segmentType</key>
                              <string>line</string>
                              <key>smooth</key>
                              <integer>0</integer>
                              <key>x</key>
                              <integer>121</integer>
                              <key>y</key>
                              <integer>0</integer>
                            </dict>
                            <dict>
                              <key>segmentType</key>
                              <string>line</string>
                              <key>smooth</key>
                              <integer>0</integer>
                              <key>x</key>
                              <integer>51</integer>
                              <key>y</key>
                              <integer>0</integer>
                            </dict>
                            <dict>
                              <key>segmentType</key>
                              <string>line</string>
                              <key>smooth</key>
                              <integer>1</integer>
                              <key>x</key>
                              <integer>51</integer>
                              <key>y</key>
                              <integer>509</integer>
                            </dict>
                            <dict>
                              <key>smooth</key>
                              <integer>0</integer>
                              <key>x</key>
                              <integer>51</integer>
                              <key>y</key>
                              <integer>627</integer>
                            </dict>
                            <dict>
                              <key>smooth</key>
                              <integer>0</integer>
                              <key>x</key>
                              <integer>148</integer>
                              <key>y</key>
                              <integer>740</integer>
                            </dict>
                            <dict>
                              <key>segmentType</key>
                              <string>curve</string>
                              <key>smooth</key>
                              <integer>1</integer>
                              <key>x</key>
                              <integer>223</integer>
                              <key>y</key>
                              <integer>740</integer>
                            </dict>
                            <dict>
                              <key>smooth</key>
                              <integer>0</integer>
                              <key>x</key>
                              <integer>232</integer>
                              <key>y</key>
                              <integer>740</integer>
                            </dict>
                            <dict>
                              <key>smooth</key>
                              <integer>0</integer>
                              <key>x</key>
                              <integer>237</integer>
                              <key>y</key>
                              <integer>739</integer>
                            </dict>
                            <dict>
                              <key>segmentType</key>
                              <string>curve</string>
                              <key>smooth</key>
                              <integer>0</integer>
                              <key>x</key>
                              <integer>245</integer>
                              <key>y</key>
                              <integer>737</integer>
                            </dict>
                            <dict>
                              <key>segmentType</key>
                              <string>line</string>
                              <key>smooth</key>
                              <integer>0</integer>
                              <key>x</key>
                              <integer>245</integer>
                              <key>y</key>
                              <integer>653</integer>
                            </dict>
                            <dict>
                              <key>smooth</key>
                              <integer>0</integer>
                              <key>x</key>
                              <integer>227</integer>
                              <key>y</key>
                              <integer>661</integer>
                            </dict>
                            <dict>
                              <key>smooth</key>
                              <integer>0</integer>
                              <key>x</key>
                              <integer>201</integer>
                              <key>y</key>
                              <integer>667</integer>
                            </dict>
                            <dict>
                              <key>segmentType</key>
                              <string>curve</string>
                              <key>smooth</key>
                              <integer>1</integer>
                              <key>x</key>
                              <integer>169</integer>
                              <key>y</key>
                              <integer>667</integer>
                            </dict>
                            <dict>
                              <key>smooth</key>
                              <integer>0</integer>
                              <key>x</key>
                              <integer>140</integer>
                              <key>y</key>
                              <integer>667</integer>
                            </dict>
                            <dict>
                              <key>smooth</key>
                              <integer>0</integer>
                              <key>x</key>
                              <integer>121</integer>
                              <key>y</key>
                              <integer>659</integer>
                            </dict>
                          </array>
                        </dict>
                      </array>
                      <key>lib</key>
                      <dict>
                      </dict>
                      <key>name</key>
                      <string>f</string>
                      <key>unicodes</key>
                      <array>
                      </array>
                      <key>width</key>
                      <integer>199</integer>
                    </dict>
                  </dict>
                </dict>
                <key>name</key>
                <string>fi</string>
                <key>unicodes</key>
                <array>
                </array>
                <key>width</key>
                <integer>319</integer>
              </dict>
            </dict>
          </dict>
          <key>name</key>
          <string>fl</string>
          <key>unicodes</key>
          <array>
          </array>
          <key>width</key>
          <integer>309</integer>
        </dict>
      </dict>
      <key>public.markColor</key>
      <string>0,1,0,0.5</string>
    </dict>
  </lib>
</glyph>
