<?xml version="1.0" encoding="UTF-8"?>
<glyph name="k" format="1">
  <advance width="274"/>
  <unicode hex="006B"/>
  <outline>
    <contour>
      <point x="104" y="315" type="curve"/>
      <point x="107" y="349" type="line"/>
      <point x="119" y="338" type="line"/>
      <point x="218" y="351" type="line"/>
      <point x="264" y="0" type="line"/>
      <point x="188" y="0" type="line"/>
      <point x="168" y="231" type="line" smooth="yes"/>
      <point x="162" y="305"/>
      <point x="143" y="322"/>
    </contour>
    <contour>
      <point x="36" y="730" type="line"/>
      <point x="106" y="730" type="line"/>
      <point x="106" y="649" type="line"/>
      <point x="82" y="354" type="line"/>
      <point x="92" y="352" type="line"/>
      <point x="165" y="600" type="line"/>
      <point x="255" y="600" type="line"/>
      <point x="255" y="538" type="line"/>
      <point x="233" y="532" type="line" smooth="yes"/>
      <point x="190" y="520"/>
      <point x="168" y="491"/>
      <point x="136" y="412" type="curve"/>
      <point x="112" y="352"/>
      <point x="106" y="317"/>
      <point x="106" y="264" type="curve"/>
      <point x="106" y="0" type="line" smooth="yes"/>
      <point x="36" y="0" type="line"/>
    </contour>
  </outline>
  <lib>
    <dict>
      <key>com.schriftgestaltung.Glyphs.lastChange</key>
      <string>2019-04-26 20:29:54 +0000</string>
      <key>com.typemytype.robofont.layerData</key>
      <dict>
        <key>background</key>
        <dict>
          <key>anchors</key>
          <array>
          </array>
          <key>components</key>
          <array>
          </array>
          <key>contours</key>
          <array>
            <dict>
              <key>points</key>
              <array>
                <dict>
                  <key>segmentType</key>
                  <string>line</string>
                  <key>smooth</key>
                  <integer>0</integer>
                  <key>x</key>
                  <integer>1006</integer>
                  <key>y</key>
                  <integer>730</integer>
                </dict>
                <dict>
                  <key>segmentType</key>
                  <string>line</string>
                  <key>smooth</key>
                  <integer>0</integer>
                  <key>x</key>
                  <integer>1006</integer>
                  <key>y</key>
                  <integer>589</integer>
                </dict>
                <dict>
                  <key>segmentType</key>
                  <string>line</string>
                  <key>smooth</key>
                  <integer>0</integer>
                  <key>x</key>
                  <integer>982</integer>
                  <key>y</key>
                  <integer>225</integer>
                </dict>
                <dict>
                  <key>segmentType</key>
                  <string>line</string>
                  <key>smooth</key>
                  <integer>0</integer>
                  <key>x</key>
                  <integer>992</integer>
                  <key>y</key>
                  <integer>223</integer>
                </dict>
                <dict>
                  <key>segmentType</key>
                  <string>line</string>
                  <key>smooth</key>
                  <integer>0</integer>
                  <key>x</key>
                  <integer>1075</integer>
                  <key>y</key>
                  <integer>600</integer>
                </dict>
                <dict>
                  <key>segmentType</key>
                  <string>line</string>
                  <key>smooth</key>
                  <integer>0</integer>
                  <key>x</key>
                  <integer>1165</integer>
                  <key>y</key>
                  <integer>600</integer>
                </dict>
                <dict>
                  <key>segmentType</key>
                  <string>line</string>
                  <key>smooth</key>
                  <integer>0</integer>
                  <key>x</key>
                  <integer>1165</integer>
                  <key>y</key>
                  <integer>538</integer>
                </dict>
                <dict>
                  <key>segmentType</key>
                  <string>line</string>
                  <key>smooth</key>
                  <integer>1</integer>
                  <key>x</key>
                  <integer>1143</integer>
                  <key>y</key>
                  <integer>532</integer>
                </dict>
                <dict>
                  <key>smooth</key>
                  <integer>0</integer>
                  <key>x</key>
                  <integer>1091</integer>
                  <key>y</key>
                  <integer>518</integer>
                </dict>
                <dict>
                  <key>smooth</key>
                  <integer>0</integer>
                  <key>x</key>
                  <integer>1067</integer>
                  <key>y</key>
                  <integer>465</integer>
                </dict>
                <dict>
                  <key>segmentType</key>
                  <string>curve</string>
                  <key>smooth</key>
                  <integer>1</integer>
                  <key>x</key>
                  <integer>1038</integer>
                  <key>y</key>
                  <integer>352</integer>
                </dict>
                <dict>
                  <key>smooth</key>
                  <integer>0</integer>
                  <key>x</key>
                  <integer>1016</integer>
                  <key>y</key>
                  <integer>266</integer>
                </dict>
                <dict>
                  <key>smooth</key>
                  <integer>0</integer>
                  <key>x</key>
                  <integer>1006</integer>
                  <key>y</key>
                  <integer>217</integer>
                </dict>
                <dict>
                  <key>segmentType</key>
                  <string>curve</string>
                  <key>smooth</key>
                  <integer>1</integer>
                  <key>x</key>
                  <integer>1006</integer>
                  <key>y</key>
                  <integer>154</integer>
                </dict>
                <dict>
                  <key>segmentType</key>
                  <string>line</string>
                  <key>smooth</key>
                  <integer>1</integer>
                  <key>x</key>
                  <integer>1006</integer>
                  <key>y</key>
                  <integer>0</integer>
                </dict>
                <dict>
                  <key>segmentType</key>
                  <string>line</string>
                  <key>smooth</key>
                  <integer>0</integer>
                  <key>x</key>
                  <integer>936</integer>
                  <key>y</key>
                  <integer>0</integer>
                </dict>
                <dict>
                  <key>segmentType</key>
                  <string>line</string>
                  <key>smooth</key>
                  <integer>0</integer>
                  <key>x</key>
                  <integer>936</integer>
                  <key>y</key>
                  <integer>730</integer>
                </dict>
              </array>
            </dict>
            <dict>
              <key>points</key>
              <array>
                <dict>
                  <key>segmentType</key>
                  <string>line</string>
                  <key>smooth</key>
                  <integer>0</integer>
                  <key>x</key>
                  <integer>1024</integer>
                  <key>y</key>
                  <integer>319</integer>
                </dict>
                <dict>
                  <key>segmentType</key>
                  <string>line</string>
                  <key>smooth</key>
                  <integer>0</integer>
                  <key>x</key>
                  <integer>1041</integer>
                  <key>y</key>
                  <integer>397</integer>
                </dict>
                <dict>
                  <key>segmentType</key>
                  <string>line</string>
                  <key>smooth</key>
                  <integer>0</integer>
                  <key>x</key>
                  <integer>1092</integer>
                  <key>y</key>
                  <integer>397</integer>
                </dict>
                <dict>
                  <key>segmentType</key>
                  <string>line</string>
                  <key>smooth</key>
                  <integer>0</integer>
                  <key>x</key>
                  <integer>1167</integer>
                  <key>y</key>
                  <integer>0</integer>
                </dict>
                <dict>
                  <key>segmentType</key>
                  <string>line</string>
                  <key>smooth</key>
                  <integer>0</integer>
                  <key>x</key>
                  <integer>1091</integer>
                  <key>y</key>
                  <integer>0</integer>
                </dict>
                <dict>
                  <key>segmentType</key>
                  <string>line</string>
                  <key>smooth</key>
                  <integer>0</integer>
                  <key>x</key>
                  <integer>1040</integer>
                  <key>y</key>
                  <integer>319</integer>
                </dict>
              </array>
            </dict>
            <dict>
              <key>points</key>
              <array>
                <dict>
                  <key>segmentType</key>
                  <string>curve</string>
                  <key>smooth</key>
                  <integer>0</integer>
                  <key>x</key>
                  <integer>704</integer>
                  <key>y</key>
                  <integer>265</integer>
                </dict>
                <dict>
                  <key>segmentType</key>
                  <string>line</string>
                  <key>smooth</key>
                  <integer>0</integer>
                  <key>x</key>
                  <integer>707</integer>
                  <key>y</key>
                  <integer>299</integer>
                </dict>
                <dict>
                  <key>segmentType</key>
                  <string>line</string>
                  <key>smooth</key>
                  <integer>0</integer>
                  <key>x</key>
                  <integer>719</integer>
                  <key>y</key>
                  <integer>288</integer>
                </dict>
                <dict>
                  <key>segmentType</key>
                  <string>line</string>
                  <key>smooth</key>
                  <integer>0</integer>
                  <key>x</key>
                  <integer>827</integer>
                  <key>y</key>
                  <integer>301</integer>
                </dict>
                <dict>
                  <key>segmentType</key>
                  <string>line</string>
                  <key>smooth</key>
                  <integer>0</integer>
                  <key>x</key>
                  <integer>874</integer>
                  <key>y</key>
                  <integer>0</integer>
                </dict>
                <dict>
                  <key>segmentType</key>
                  <string>line</string>
                  <key>smooth</key>
                  <integer>0</integer>
                  <key>x</key>
                  <integer>798</integer>
                  <key>y</key>
                  <integer>0</integer>
                </dict>
                <dict>
                  <key>segmentType</key>
                  <string>line</string>
                  <key>smooth</key>
                  <integer>1</integer>
                  <key>x</key>
                  <integer>778</integer>
                  <key>y</key>
                  <integer>181</integer>
                </dict>
                <dict>
                  <key>smooth</key>
                  <integer>0</integer>
                  <key>x</key>
                  <integer>770</integer>
                  <key>y</key>
                  <integer>255</integer>
                </dict>
                <dict>
                  <key>smooth</key>
                  <integer>0</integer>
                  <key>x</key>
                  <integer>749</integer>
                  <key>y</key>
                  <integer>272</integer>
                </dict>
              </array>
            </dict>
            <dict>
              <key>points</key>
              <array>
                <dict>
                  <key>segmentType</key>
                  <string>line</string>
                  <key>smooth</key>
                  <integer>0</integer>
                  <key>x</key>
                  <integer>706</integer>
                  <key>y</key>
                  <integer>730</integer>
                </dict>
                <dict>
                  <key>segmentType</key>
                  <string>line</string>
                  <key>smooth</key>
                  <integer>0</integer>
                  <key>x</key>
                  <integer>706</integer>
                  <key>y</key>
                  <integer>649</integer>
                </dict>
                <dict>
                  <key>segmentType</key>
                  <string>line</string>
                  <key>smooth</key>
                  <integer>0</integer>
                  <key>x</key>
                  <integer>682</integer>
                  <key>y</key>
                  <integer>304</integer>
                </dict>
                <dict>
                  <key>segmentType</key>
                  <string>line</string>
                  <key>smooth</key>
                  <integer>0</integer>
                  <key>x</key>
                  <integer>692</integer>
                  <key>y</key>
                  <integer>302</integer>
                </dict>
                <dict>
                  <key>segmentType</key>
                  <string>line</string>
                  <key>smooth</key>
                  <integer>0</integer>
                  <key>x</key>
                  <integer>775</integer>
                  <key>y</key>
                  <integer>600</integer>
                </dict>
                <dict>
                  <key>segmentType</key>
                  <string>line</string>
                  <key>smooth</key>
                  <integer>0</integer>
                  <key>x</key>
                  <integer>865</integer>
                  <key>y</key>
                  <integer>600</integer>
                </dict>
                <dict>
                  <key>segmentType</key>
                  <string>line</string>
                  <key>smooth</key>
                  <integer>0</integer>
                  <key>x</key>
                  <integer>865</integer>
                  <key>y</key>
                  <integer>538</integer>
                </dict>
                <dict>
                  <key>segmentType</key>
                  <string>line</string>
                  <key>smooth</key>
                  <integer>1</integer>
                  <key>x</key>
                  <integer>843</integer>
                  <key>y</key>
                  <integer>532</integer>
                </dict>
                <dict>
                  <key>smooth</key>
                  <integer>0</integer>
                  <key>x</key>
                  <integer>794</integer>
                  <key>y</key>
                  <integer>519</integer>
                </dict>
                <dict>
                  <key>smooth</key>
                  <integer>0</integer>
                  <key>x</key>
                  <integer>772</integer>
                  <key>y</key>
                  <integer>480</integer>
                </dict>
                <dict>
                  <key>segmentType</key>
                  <string>curve</string>
                  <key>smooth</key>
                  <integer>1</integer>
                  <key>x</key>
                  <integer>738</integer>
                  <key>y</key>
                  <integer>382</integer>
                </dict>
                <dict>
                  <key>smooth</key>
                  <integer>0</integer>
                  <key>x</key>
                  <integer>714</integer>
                  <key>y</key>
                  <integer>314</integer>
                </dict>
                <dict>
                  <key>smooth</key>
                  <integer>0</integer>
                  <key>x</key>
                  <integer>706</integer>
                  <key>y</key>
                  <integer>275</integer>
                </dict>
                <dict>
                  <key>segmentType</key>
                  <string>curve</string>
                  <key>smooth</key>
                  <integer>1</integer>
                  <key>x</key>
                  <integer>706</integer>
                  <key>y</key>
                  <integer>214</integer>
                </dict>
                <dict>
                  <key>segmentType</key>
                  <string>line</string>
                  <key>smooth</key>
                  <integer>1</integer>
                  <key>x</key>
                  <integer>706</integer>
                  <key>y</key>
                  <integer>0</integer>
                </dict>
                <dict>
                  <key>segmentType</key>
                  <string>line</string>
                  <key>smooth</key>
                  <integer>0</integer>
                  <key>x</key>
                  <integer>636</integer>
                  <key>y</key>
                  <integer>0</integer>
                </dict>
                <dict>
                  <key>segmentType</key>
                  <string>line</string>
                  <key>smooth</key>
                  <integer>0</integer>
                  <key>x</key>
                  <integer>636</integer>
                  <key>y</key>
                  <integer>730</integer>
                </dict>
              </array>
            </dict>
            <dict>
              <key>points</key>
              <array>
                <dict>
                  <key>segmentType</key>
                  <string>curve</string>
                  <key>smooth</key>
                  <integer>0</integer>
                  <key>x</key>
                  <integer>404</integer>
                  <key>y</key>
                  <integer>265</integer>
                </dict>
                <dict>
                  <key>segmentType</key>
                  <string>line</string>
                  <key>smooth</key>
                  <integer>0</integer>
                  <key>x</key>
                  <integer>407</integer>
                  <key>y</key>
                  <integer>299</integer>
                </dict>
                <dict>
                  <key>segmentType</key>
                  <string>line</string>
                  <key>smooth</key>
                  <integer>0</integer>
                  <key>x</key>
                  <integer>419</integer>
                  <key>y</key>
                  <integer>288</integer>
                </dict>
                <dict>
                  <key>segmentType</key>
                  <string>line</string>
                  <key>smooth</key>
                  <integer>0</integer>
                  <key>x</key>
                  <integer>522</integer>
                  <key>y</key>
                  <integer>301</integer>
                </dict>
                <dict>
                  <key>segmentType</key>
                  <string>line</string>
                  <key>smooth</key>
                  <integer>0</integer>
                  <key>x</key>
                  <integer>569</integer>
                  <key>y</key>
                  <integer>0</integer>
                </dict>
                <dict>
                  <key>segmentType</key>
                  <string>line</string>
                  <key>smooth</key>
                  <integer>0</integer>
                  <key>x</key>
                  <integer>493</integer>
                  <key>y</key>
                  <integer>0</integer>
                </dict>
                <dict>
                  <key>segmentType</key>
                  <string>line</string>
                  <key>smooth</key>
                  <integer>1</integer>
                  <key>x</key>
                  <integer>473</integer>
                  <key>y</key>
                  <integer>181</integer>
                </dict>
                <dict>
                  <key>smooth</key>
                  <integer>0</integer>
                  <key>x</key>
                  <integer>465</integer>
                  <key>y</key>
                  <integer>255</integer>
                </dict>
                <dict>
                  <key>smooth</key>
                  <integer>0</integer>
                  <key>x</key>
                  <integer>446</integer>
                  <key>y</key>
                  <integer>272</integer>
                </dict>
              </array>
            </dict>
            <dict>
              <key>points</key>
              <array>
                <dict>
                  <key>segmentType</key>
                  <string>line</string>
                  <key>smooth</key>
                  <integer>0</integer>
                  <key>x</key>
                  <integer>406</integer>
                  <key>y</key>
                  <integer>730</integer>
                </dict>
                <dict>
                  <key>segmentType</key>
                  <string>line</string>
                  <key>smooth</key>
                  <integer>0</integer>
                  <key>x</key>
                  <integer>406</integer>
                  <key>y</key>
                  <integer>649</integer>
                </dict>
                <dict>
                  <key>segmentType</key>
                  <string>line</string>
                  <key>smooth</key>
                  <integer>0</integer>
                  <key>x</key>
                  <integer>382</integer>
                  <key>y</key>
                  <integer>304</integer>
                </dict>
                <dict>
                  <key>segmentType</key>
                  <string>line</string>
                  <key>smooth</key>
                  <integer>0</integer>
                  <key>x</key>
                  <integer>392</integer>
                  <key>y</key>
                  <integer>302</integer>
                </dict>
                <dict>
                  <key>segmentType</key>
                  <string>line</string>
                  <key>smooth</key>
                  <integer>0</integer>
                  <key>x</key>
                  <integer>470</integer>
                  <key>y</key>
                  <integer>600</integer>
                </dict>
                <dict>
                  <key>segmentType</key>
                  <string>line</string>
                  <key>smooth</key>
                  <integer>0</integer>
                  <key>x</key>
                  <integer>560</integer>
                  <key>y</key>
                  <integer>600</integer>
                </dict>
                <dict>
                  <key>segmentType</key>
                  <string>line</string>
                  <key>smooth</key>
                  <integer>0</integer>
                  <key>x</key>
                  <integer>560</integer>
                  <key>y</key>
                  <integer>538</integer>
                </dict>
                <dict>
                  <key>segmentType</key>
                  <string>line</string>
                  <key>smooth</key>
                  <integer>1</integer>
                  <key>x</key>
                  <integer>538</integer>
                  <key>y</key>
                  <integer>532</integer>
                </dict>
                <dict>
                  <key>smooth</key>
                  <integer>0</integer>
                  <key>x</key>
                  <integer>491</integer>
                  <key>y</key>
                  <integer>519</integer>
                </dict>
                <dict>
                  <key>smooth</key>
                  <integer>0</integer>
                  <key>x</key>
                  <integer>470</integer>
                  <key>y</key>
                  <integer>480</integer>
                </dict>
                <dict>
                  <key>segmentType</key>
                  <string>curve</string>
                  <key>smooth</key>
                  <integer>1</integer>
                  <key>x</key>
                  <integer>437</integer>
                  <key>y</key>
                  <integer>382</integer>
                </dict>
                <dict>
                  <key>smooth</key>
                  <integer>0</integer>
                  <key>x</key>
                  <integer>414</integer>
                  <key>y</key>
                  <integer>314</integer>
                </dict>
                <dict>
                  <key>smooth</key>
                  <integer>0</integer>
                  <key>x</key>
                  <integer>406</integer>
                  <key>y</key>
                  <integer>275</integer>
                </dict>
                <dict>
                  <key>segmentType</key>
                  <string>curve</string>
                  <key>smooth</key>
                  <integer>1</integer>
                  <key>x</key>
                  <integer>406</integer>
                  <key>y</key>
                  <integer>214</integer>
                </dict>
                <dict>
                  <key>segmentType</key>
                  <string>line</string>
                  <key>smooth</key>
                  <integer>1</integer>
                  <key>x</key>
                  <integer>406</integer>
                  <key>y</key>
                  <integer>0</integer>
                </dict>
                <dict>
                  <key>segmentType</key>
                  <string>line</string>
                  <key>smooth</key>
                  <integer>0</integer>
                  <key>x</key>
                  <integer>336</integer>
                  <key>y</key>
                  <integer>0</integer>
                </dict>
                <dict>
                  <key>segmentType</key>
                  <string>line</string>
                  <key>smooth</key>
                  <integer>0</integer>
                  <key>x</key>
                  <integer>336</integer>
                  <key>y</key>
                  <integer>730</integer>
                </dict>
              </array>
            </dict>
            <dict>
              <key>points</key>
              <array>
                <dict>
                  <key>segmentType</key>
                  <string>curve</string>
                  <key>smooth</key>
                  <integer>0</integer>
                  <key>x</key>
                  <integer>104</integer>
                  <key>y</key>
                  <integer>295</integer>
                </dict>
                <dict>
                  <key>segmentType</key>
                  <string>line</string>
                  <key>smooth</key>
                  <integer>0</integer>
                  <key>x</key>
                  <integer>107</integer>
                  <key>y</key>
                  <integer>329</integer>
                </dict>
                <dict>
                  <key>segmentType</key>
                  <string>line</string>
                  <key>smooth</key>
                  <integer>0</integer>
                  <key>x</key>
                  <integer>119</integer>
                  <key>y</key>
                  <integer>318</integer>
                </dict>
                <dict>
                  <key>segmentType</key>
                  <string>line</string>
                  <key>smooth</key>
                  <integer>0</integer>
                  <key>x</key>
                  <integer>222</integer>
                  <key>y</key>
                  <integer>331</integer>
                </dict>
                <dict>
                  <key>segmentType</key>
                  <string>line</string>
                  <key>smooth</key>
                  <integer>0</integer>
                  <key>x</key>
                  <integer>269</integer>
                  <key>y</key>
                  <integer>0</integer>
                </dict>
                <dict>
                  <key>segmentType</key>
                  <string>line</string>
                  <key>smooth</key>
                  <integer>0</integer>
                  <key>x</key>
                  <integer>193</integer>
                  <key>y</key>
                  <integer>0</integer>
                </dict>
                <dict>
                  <key>segmentType</key>
                  <string>line</string>
                  <key>smooth</key>
                  <integer>1</integer>
                  <key>x</key>
                  <integer>173</integer>
                  <key>y</key>
                  <integer>211</integer>
                </dict>
                <dict>
                  <key>smooth</key>
                  <integer>0</integer>
                  <key>x</key>
                  <integer>166</integer>
                  <key>y</key>
                  <integer>285</integer>
                </dict>
                <dict>
                  <key>smooth</key>
                  <integer>0</integer>
                  <key>x</key>
                  <integer>146</integer>
                  <key>y</key>
                  <integer>302</integer>
                </dict>
              </array>
            </dict>
            <dict>
              <key>points</key>
              <array>
                <dict>
                  <key>segmentType</key>
                  <string>line</string>
                  <key>smooth</key>
                  <integer>0</integer>
                  <key>x</key>
                  <integer>106</integer>
                  <key>y</key>
                  <integer>730</integer>
                </dict>
                <dict>
                  <key>segmentType</key>
                  <string>line</string>
                  <key>smooth</key>
                  <integer>0</integer>
                  <key>x</key>
                  <integer>106</integer>
                  <key>y</key>
                  <integer>649</integer>
                </dict>
                <dict>
                  <key>segmentType</key>
                  <string>line</string>
                  <key>smooth</key>
                  <integer>0</integer>
                  <key>x</key>
                  <integer>82</integer>
                  <key>y</key>
                  <integer>334</integer>
                </dict>
                <dict>
                  <key>segmentType</key>
                  <string>line</string>
                  <key>smooth</key>
                  <integer>0</integer>
                  <key>x</key>
                  <integer>92</integer>
                  <key>y</key>
                  <integer>332</integer>
                </dict>
                <dict>
                  <key>segmentType</key>
                  <string>line</string>
                  <key>smooth</key>
                  <integer>0</integer>
                  <key>x</key>
                  <integer>170</integer>
                  <key>y</key>
                  <integer>600</integer>
                </dict>
                <dict>
                  <key>segmentType</key>
                  <string>line</string>
                  <key>smooth</key>
                  <integer>0</integer>
                  <key>x</key>
                  <integer>260</integer>
                  <key>y</key>
                  <integer>600</integer>
                </dict>
                <dict>
                  <key>segmentType</key>
                  <string>line</string>
                  <key>smooth</key>
                  <integer>0</integer>
                  <key>x</key>
                  <integer>260</integer>
                  <key>y</key>
                  <integer>538</integer>
                </dict>
                <dict>
                  <key>segmentType</key>
                  <string>line</string>
                  <key>smooth</key>
                  <integer>1</integer>
                  <key>x</key>
                  <integer>238</integer>
                  <key>y</key>
                  <integer>532</integer>
                </dict>
                <dict>
                  <key>smooth</key>
                  <integer>0</integer>
                  <key>x</key>
                  <integer>191</integer>
                  <key>y</key>
                  <integer>519</integer>
                </dict>
                <dict>
                  <key>smooth</key>
                  <integer>0</integer>
                  <key>x</key>
                  <integer>170</integer>
                  <key>y</key>
                  <integer>488</integer>
                </dict>
                <dict>
                  <key>segmentType</key>
                  <string>curve</string>
                  <key>smooth</key>
                  <integer>1</integer>
                  <key>x</key>
                  <integer>137</integer>
                  <key>y</key>
                  <integer>402</integer>
                </dict>
                <dict>
                  <key>smooth</key>
                  <integer>0</integer>
                  <key>x</key>
                  <integer>113</integer>
                  <key>y</key>
                  <integer>338</integer>
                </dict>
                <dict>
                  <key>smooth</key>
                  <integer>0</integer>
                  <key>x</key>
                  <integer>106</integer>
                  <key>y</key>
                  <integer>301</integer>
                </dict>
                <dict>
                  <key>segmentType</key>
                  <string>curve</string>
                  <key>smooth</key>
                  <integer>1</integer>
                  <key>x</key>
                  <integer>106</integer>
                  <key>y</key>
                  <integer>244</integer>
                </dict>
                <dict>
                  <key>segmentType</key>
                  <string>line</string>
                  <key>smooth</key>
                  <integer>1</integer>
                  <key>x</key>
                  <integer>106</integer>
                  <key>y</key>
                  <integer>0</integer>
                </dict>
                <dict>
                  <key>segmentType</key>
                  <string>line</string>
                  <key>smooth</key>
                  <integer>0</integer>
                  <key>x</key>
                  <integer>36</integer>
                  <key>y</key>
                  <integer>0</integer>
                </dict>
                <dict>
                  <key>segmentType</key>
                  <string>line</string>
                  <key>smooth</key>
                  <integer>0</integer>
                  <key>x</key>
                  <integer>36</integer>
                  <key>y</key>
                  <integer>730</integer>
                </dict>
              </array>
            </dict>
          </array>
          <key>lib</key>
          <dict>
            <key>com.typemytype.robofont.layerData</key>
            <dict>
              <key>background</key>
              <dict>
                <key>anchors</key>
                <array>
                </array>
                <key>components</key>
                <array>
                </array>
                <key>contours</key>
                <array>
                  <dict>
                    <key>points</key>
                    <array>
                      <dict>
                        <key>segmentType</key>
                        <string>line</string>
                        <key>smooth</key>
                        <integer>0</integer>
                        <key>x</key>
                        <integer>99</integer>
                        <key>y</key>
                        <integer>600</integer>
                      </dict>
                      <dict>
                        <key>segmentType</key>
                        <string>line</string>
                        <key>smooth</key>
                        <integer>0</integer>
                        <key>x</key>
                        <integer>99</integer>
                        <key>y</key>
                        <integer>589</integer>
                      </dict>
                      <dict>
                        <key>segmentType</key>
                        <string>line</string>
                        <key>smooth</key>
                        <integer>0</integer>
                        <key>x</key>
                        <integer>76</integer>
                        <key>y</key>
                        <integer>437</integer>
                      </dict>
                      <dict>
                        <key>segmentType</key>
                        <string>line</string>
                        <key>smooth</key>
                        <integer>0</integer>
                        <key>x</key>
                        <integer>86</integer>
                        <key>y</key>
                        <integer>435</integer>
                      </dict>
                      <dict>
                        <key>smooth</key>
                        <integer>0</integer>
                        <key>x</key>
                        <integer>107</integer>
                        <key>y</key>
                        <integer>588</integer>
                      </dict>
                      <dict>
                        <key>smooth</key>
                        <integer>0</integer>
                        <key>x</key>
                        <integer>141</integer>
                        <key>y</key>
                        <integer>613</integer>
                      </dict>
                      <dict>
                        <key>segmentType</key>
                        <string>curve</string>
                        <key>smooth</key>
                        <integer>1</integer>
                        <key>x</key>
                        <integer>179</integer>
                        <key>y</key>
                        <integer>613</integer>
                      </dict>
                      <dict>
                        <key>smooth</key>
                        <integer>0</integer>
                        <key>x</key>
                        <integer>216</integer>
                        <key>y</key>
                        <integer>613</integer>
                      </dict>
                      <dict>
                        <key>smooth</key>
                        <integer>0</integer>
                        <key>x</key>
                        <integer>243</integer>
                        <key>y</key>
                        <integer>582</integer>
                      </dict>
                      <dict>
                        <key>segmentType</key>
                        <string>curve</string>
                        <key>smooth</key>
                        <integer>1</integer>
                        <key>x</key>
                        <integer>243</integer>
                        <key>y</key>
                        <integer>532</integer>
                      </dict>
                      <dict>
                        <key>segmentType</key>
                        <string>line</string>
                        <key>smooth</key>
                        <integer>1</integer>
                        <key>x</key>
                        <integer>243</integer>
                        <key>y</key>
                        <integer>0</integer>
                      </dict>
                      <dict>
                        <key>segmentType</key>
                        <string>line</string>
                        <key>smooth</key>
                        <integer>0</integer>
                        <key>x</key>
                        <integer>173</integer>
                        <key>y</key>
                        <integer>0</integer>
                      </dict>
                      <dict>
                        <key>segmentType</key>
                        <string>line</string>
                        <key>smooth</key>
                        <integer>1</integer>
                        <key>x</key>
                        <integer>173</integer>
                        <key>y</key>
                        <integer>493</integer>
                      </dict>
                      <dict>
                        <key>smooth</key>
                        <integer>0</integer>
                        <key>x</key>
                        <integer>173</integer>
                        <key>y</key>
                        <integer>529</integer>
                      </dict>
                      <dict>
                        <key>smooth</key>
                        <integer>0</integer>
                        <key>x</key>
                        <integer>168</integer>
                        <key>y</key>
                        <integer>545</integer>
                      </dict>
                      <dict>
                        <key>segmentType</key>
                        <string>curve</string>
                        <key>smooth</key>
                        <integer>1</integer>
                        <key>x</key>
                        <integer>149</integer>
                        <key>y</key>
                        <integer>545</integer>
                      </dict>
                      <dict>
                        <key>smooth</key>
                        <integer>0</integer>
                        <key>x</key>
                        <integer>121</integer>
                        <key>y</key>
                        <integer>545</integer>
                      </dict>
                      <dict>
                        <key>smooth</key>
                        <integer>0</integer>
                        <key>x</key>
                        <integer>100</integer>
                        <key>y</key>
                        <integer>476</integer>
                      </dict>
                      <dict>
                        <key>segmentType</key>
                        <string>curve</string>
                        <key>smooth</key>
                        <integer>1</integer>
                        <key>x</key>
                        <integer>100</integer>
                        <key>y</key>
                        <integer>382</integer>
                      </dict>
                      <dict>
                        <key>segmentType</key>
                        <string>line</string>
                        <key>smooth</key>
                        <integer>1</integer>
                        <key>x</key>
                        <integer>100</integer>
                        <key>y</key>
                        <integer>0</integer>
                      </dict>
                      <dict>
                        <key>segmentType</key>
                        <string>line</string>
                        <key>smooth</key>
                        <integer>0</integer>
                        <key>x</key>
                        <integer>30</integer>
                        <key>y</key>
                        <integer>0</integer>
                      </dict>
                      <dict>
                        <key>segmentType</key>
                        <string>line</string>
                        <key>smooth</key>
                        <integer>0</integer>
                        <key>x</key>
                        <integer>30</integer>
                        <key>y</key>
                        <integer>600</integer>
                      </dict>
                    </array>
                  </dict>
                </array>
                <key>lib</key>
                <dict>
                </dict>
                <key>name</key>
                <string>h</string>
                <key>unicodes</key>
                <array>
                </array>
                <key>width</key>
                <integer>273</integer>
              </dict>
            </dict>
          </dict>
          <key>name</key>
          <string>k</string>
          <key>unicodes</key>
          <array>
          </array>
          <key>width</key>
          <integer>274</integer>
        </dict>
      </dict>
      <key>public.markColor</key>
      <string>0,0,1,1</string>
    </dict>
  </lib>
</glyph>
