<?xml version="1.0" encoding="UTF-8"?>
<glyph name="o" format="1">
  <advance width="276"/>
  <unicode hex="006F"/>
  <outline>
    <contour>
      <point x="132" y="542" type="curve"/>
      <point x="110" y="542"/>
      <point x="105" y="520"/>
      <point x="105" y="485" type="curve"/>
      <point x="105" y="141" type="line" smooth="yes"/>
      <point x="105" y="69"/>
      <point x="123" y="58"/>
      <point x="144" y="58" type="curve"/>
      <point x="166" y="58"/>
      <point x="171" y="80"/>
      <point x="171" y="115" type="curve"/>
      <point x="171" y="459" type="line" smooth="yes"/>
      <point x="171" y="531"/>
      <point x="152" y="542"/>
    </contour>
    <contour>
      <point x="132" y="-10" type="curve"/>
      <point x="69" y="-10"/>
      <point x="35" y="21"/>
      <point x="35" y="107" type="curve"/>
      <point x="35" y="475" type="line" smooth="yes"/>
      <point x="35" y="573"/>
      <point x="85" y="610"/>
      <point x="144" y="610" type="curve"/>
      <point x="208" y="610"/>
      <point x="241" y="579"/>
      <point x="241" y="493" type="curve"/>
      <point x="241" y="125" type="line" smooth="yes"/>
      <point x="241" y="27"/>
      <point x="191" y="-10"/>
    </contour>
    <contour>
      <point x="143" y="640" type="move" name="top"/>
    </contour>
  </outline>
  <lib>
    <dict>
      <key>com.schriftgestaltung.Glyphs.lastChange</key>
      <string>2019-04-26 20:29:54 +0000</string>
      <key>com.typemytype.robofont.layerData</key>
      <dict>
        <key>background</key>
        <dict>
          <key>anchors</key>
          <array>
          </array>
          <key>components</key>
          <array>
          </array>
          <key>contours</key>
          <array>
            <dict>
              <key>points</key>
              <array>
                <dict>
                  <key>segmentType</key>
                  <string>curve</string>
                  <key>smooth</key>
                  <integer>1</integer>
                  <key>x</key>
                  <integer>190</integer>
                  <key>y</key>
                  <integer>513</integer>
                </dict>
                <dict>
                  <key>smooth</key>
                  <integer>0</integer>
                  <key>x</key>
                  <integer>190</integer>
                  <key>y</key>
                  <integer>531</integer>
                </dict>
                <dict>
                  <key>smooth</key>
                  <integer>0</integer>
                  <key>x</key>
                  <integer>175</integer>
                  <key>y</key>
                  <integer>539</integer>
                </dict>
                <dict>
                  <key>segmentType</key>
                  <string>curve</string>
                  <key>smooth</key>
                  <integer>1</integer>
                  <key>x</key>
                  <integer>137</integer>
                  <key>y</key>
                  <integer>539</integer>
                </dict>
                <dict>
                  <key>smooth</key>
                  <integer>0</integer>
                  <key>x</key>
                  <integer>111</integer>
                  <key>y</key>
                  <integer>539</integer>
                </dict>
                <dict>
                  <key>smooth</key>
                  <integer>0</integer>
                  <key>x</key>
                  <integer>105</integer>
                  <key>y</key>
                  <integer>517</integer>
                </dict>
                <dict>
                  <key>segmentType</key>
                  <string>curve</string>
                  <key>smooth</key>
                  <integer>1</integer>
                  <key>x</key>
                  <integer>105</integer>
                  <key>y</key>
                  <integer>482</integer>
                </dict>
                <dict>
                  <key>segmentType</key>
                  <string>line</string>
                  <key>smooth</key>
                  <integer>1</integer>
                  <key>x</key>
                  <integer>105</integer>
                  <key>y</key>
                  <integer>140</integer>
                </dict>
                <dict>
                  <key>smooth</key>
                  <integer>0</integer>
                  <key>x</key>
                  <integer>105</integer>
                  <key>y</key>
                  <integer>68</integer>
                </dict>
                <dict>
                  <key>smooth</key>
                  <integer>0</integer>
                  <key>x</key>
                  <integer>126</integer>
                  <key>y</key>
                  <integer>57</integer>
                </dict>
                <dict>
                  <key>segmentType</key>
                  <string>curve</string>
                  <key>smooth</key>
                  <integer>1</integer>
                  <key>x</key>
                  <integer>149</integer>
                  <key>y</key>
                  <integer>57</integer>
                </dict>
                <dict>
                  <key>smooth</key>
                  <integer>0</integer>
                  <key>x</key>
                  <integer>172</integer>
                  <key>y</key>
                  <integer>57</integer>
                </dict>
                <dict>
                  <key>smooth</key>
                  <integer>0</integer>
                  <key>x</key>
                  <integer>184</integer>
                  <key>y</key>
                  <integer>95</integer>
                </dict>
                <dict>
                  <key>segmentType</key>
                  <string>curve</string>
                  <key>smooth</key>
                  <integer>1</integer>
                  <key>x</key>
                  <integer>184</integer>
                  <key>y</key>
                  <integer>159</integer>
                </dict>
                <dict>
                  <key>segmentType</key>
                  <string>line</string>
                  <key>smooth</key>
                  <integer>0</integer>
                  <key>x</key>
                  <integer>184</integer>
                  <key>y</key>
                  <integer>277</integer>
                </dict>
                <dict>
                  <key>segmentType</key>
                  <string>line</string>
                  <key>smooth</key>
                  <integer>0</integer>
                  <key>x</key>
                  <integer>204</integer>
                  <key>y</key>
                  <integer>277</integer>
                </dict>
                <dict>
                  <key>segmentType</key>
                  <string>line</string>
                  <key>smooth</key>
                  <integer>1</integer>
                  <key>x</key>
                  <integer>204</integer>
                  <key>y</key>
                  <integer>156</integer>
                </dict>
                <dict>
                  <key>smooth</key>
                  <integer>0</integer>
                  <key>x</key>
                  <integer>204</integer>
                  <key>y</key>
                  <integer>61</integer>
                </dict>
                <dict>
                  <key>smooth</key>
                  <integer>0</integer>
                  <key>x</key>
                  <integer>177</integer>
                  <key>y</key>
                  <integer>-11</integer>
                </dict>
                <dict>
                  <key>segmentType</key>
                  <string>curve</string>
                  <key>smooth</key>
                  <integer>1</integer>
                  <key>x</key>
                  <integer>117</integer>
                  <key>y</key>
                  <integer>-11</integer>
                </dict>
                <dict>
                  <key>smooth</key>
                  <integer>0</integer>
                  <key>x</key>
                  <integer>63</integer>
                  <key>y</key>
                  <integer>-11</integer>
                </dict>
                <dict>
                  <key>smooth</key>
                  <integer>0</integer>
                  <key>x</key>
                  <integer>35</integer>
                  <key>y</key>
                  <integer>20</integer>
                </dict>
                <dict>
                  <key>segmentType</key>
                  <string>curve</string>
                  <key>smooth</key>
                  <integer>1</integer>
                  <key>x</key>
                  <integer>35</integer>
                  <key>y</key>
                  <integer>106</integer>
                </dict>
                <dict>
                  <key>segmentType</key>
                  <string>line</string>
                  <key>smooth</key>
                  <integer>1</integer>
                  <key>x</key>
                  <integer>35</integer>
                  <key>y</key>
                  <integer>472</integer>
                </dict>
                <dict>
                  <key>smooth</key>
                  <integer>0</integer>
                  <key>x</key>
                  <integer>35</integer>
                  <key>y</key>
                  <integer>570</integer>
                </dict>
                <dict>
                  <key>smooth</key>
                  <integer>0</integer>
                  <key>x</key>
                  <integer>82</integer>
                  <key>y</key>
                  <integer>607</integer>
                </dict>
                <dict>
                  <key>segmentType</key>
                  <string>curve</string>
                  <key>smooth</key>
                  <integer>1</integer>
                  <key>x</key>
                  <integer>137</integer>
                  <key>y</key>
                  <integer>607</integer>
                </dict>
                <dict>
                  <key>smooth</key>
                  <integer>0</integer>
                  <key>x</key>
                  <integer>189</integer>
                  <key>y</key>
                  <integer>607</integer>
                </dict>
                <dict>
                  <key>smooth</key>
                  <integer>0</integer>
                  <key>x</key>
                  <integer>214</integer>
                  <key>y</key>
                  <integer>576</integer>
                </dict>
                <dict>
                  <key>segmentType</key>
                  <string>curve</string>
                  <key>smooth</key>
                  <integer>1</integer>
                  <key>x</key>
                  <integer>214</integer>
                  <key>y</key>
                  <integer>514</integer>
                </dict>
                <dict>
                  <key>smooth</key>
                  <integer>0</integer>
                  <key>x</key>
                  <integer>214</integer>
                  <key>y</key>
                  <integer>388</integer>
                </dict>
                <dict>
                  <key>smooth</key>
                  <integer>0</integer>
                  <key>x</key>
                  <integer>203</integer>
                  <key>y</key>
                  <integer>344</integer>
                </dict>
                <dict>
                  <key>segmentType</key>
                  <string>curve</string>
                  <key>smooth</key>
                  <integer>1</integer>
                  <key>x</key>
                  <integer>170</integer>
                  <key>y</key>
                  <integer>344</integer>
                </dict>
                <dict>
                  <key>smooth</key>
                  <integer>0</integer>
                  <key>x</key>
                  <integer>153</integer>
                  <key>y</key>
                  <integer>344</integer>
                </dict>
                <dict>
                  <key>smooth</key>
                  <integer>0</integer>
                  <key>x</key>
                  <integer>131</integer>
                  <key>y</key>
                  <integer>354</integer>
                </dict>
                <dict>
                  <key>segmentType</key>
                  <string>curve</string>
                  <key>smooth</key>
                  <integer>1</integer>
                  <key>x</key>
                  <integer>131</integer>
                  <key>y</key>
                  <integer>380</integer>
                </dict>
                <dict>
                  <key>smooth</key>
                  <integer>0</integer>
                  <key>x</key>
                  <integer>131</integer>
                  <key>y</key>
                  <integer>436</integer>
                </dict>
                <dict>
                  <key>smooth</key>
                  <integer>0</integer>
                  <key>x</key>
                  <integer>190</integer>
                  <key>y</key>
                  <integer>469</integer>
                </dict>
              </array>
            </dict>
          </array>
          <key>lib</key>
          <dict>
          </dict>
          <key>name</key>
          <string>o</string>
          <key>unicodes</key>
          <array>
          </array>
          <key>width</key>
          <integer>276</integer>
        </dict>
      </dict>
      <key>public.markColor</key>
      <string>0,0,1,1</string>
    </dict>
  </lib>
</glyph>
