<?xml version="1.0" encoding="UTF-8"?>
<glyph name="Oacute" format="1">
  <advance width="286"/>
  <unicode hex="00D3"/>
  <outline>
    <component base="O"/>
    <component base="acute" xOffset="11" yOffset="120"/>
  </outline>
  <lib>
    <dict>
      <key>com.schriftgestaltung.Glyphs.lastChange</key>
      <string>2019-04-26 20:29:54 +0000</string>
    </dict>
  </lib>
</glyph>
