<?xml version="1.0" encoding="UTF-8"?>
<glyph name="uni0433" format="1">
  <advance width="203"/>
  <unicode hex="0433"/>
  <outline>
    <contour>
      <point x="35" y="600" type="line"/>
      <point x="35" y="0" type="line"/>
      <point x="105" y="0" type="line"/>
      <point x="105" y="600" type="line"/>
    </contour>
    <contour>
      <point x="45" y="600" type="line"/>
      <point x="45" y="535" type="line"/>
      <point x="198" y="535" type="line"/>
      <point x="198" y="600" type="line"/>
    </contour>
  </outline>
  <lib>
    <dict>
      <key>com.schriftgestaltung.Glyphs.lastChange</key>
      <string>2019-07-03 09:56:38 +0000</string>
      <key>com.schriftgestaltung.Glyphs.leftMetricsKey</key>
      <string>l</string>
    </dict>
  </lib>
</glyph>
