<?xml version="1.0" encoding="UTF-8"?>
<glyph name="X" format="1">
  <advance width="265"/>
  <unicode hex="0058"/>
  <outline>
    <contour>
      <point x="115" y="328" type="line"/>
      <point x="84" y="0" type="line"/>
      <point x="0" y="0" type="line"/>
      <point x="116" y="441" type="line"/>
    </contour>
    <contour>
      <point x="148" y="169" type="line" smooth="yes"/>
      <point x="124" y="328" type="line"/>
      <point x="115" y="328" type="line"/>
      <point x="4" y="730" type="line"/>
      <point x="88" y="730" type="line"/>
      <point x="121" y="580" type="line" smooth="yes"/>
      <point x="145" y="451" type="line" smooth="yes"/>
      <point x="156" y="451" type="line"/>
      <point x="265" y="0" type="line"/>
      <point x="181" y="0" type="line"/>
    </contour>
    <contour>
      <point x="156" y="451" type="line"/>
      <point x="179" y="730" type="line"/>
      <point x="263" y="730" type="line"/>
      <point x="152" y="336" type="line"/>
    </contour>
  </outline>
  <lib>
    <dict>
      <key>com.schriftgestaltung.Glyphs.lastChange</key>
      <string>2019-04-28 10:45:46 +0000</string>
      <key>com.typemytype.robofont.layerData</key>
      <dict>
        <key>background</key>
        <dict>
          <key>anchors</key>
          <array>
          </array>
          <key>components</key>
          <array>
          </array>
          <key>contours</key>
          <array>
            <dict>
              <key>points</key>
              <array>
                <dict>
                  <key>segmentType</key>
                  <string>line</string>
                  <key>smooth</key>
                  <integer>0</integer>
                  <key>x</key>
                  <integer>84</integer>
                  <key>y</key>
                  <integer>0</integer>
                </dict>
                <dict>
                  <key>segmentType</key>
                  <string>line</string>
                  <key>smooth</key>
                  <integer>0</integer>
                  <key>x</key>
                  <integer>0</integer>
                  <key>y</key>
                  <integer>0</integer>
                </dict>
                <dict>
                  <key>segmentType</key>
                  <string>line</string>
                  <key>smooth</key>
                  <integer>0</integer>
                  <key>x</key>
                  <integer>116</integer>
                  <key>y</key>
                  <integer>363</integer>
                </dict>
                <dict>
                  <key>segmentType</key>
                  <string>line</string>
                  <key>smooth</key>
                  <integer>0</integer>
                  <key>x</key>
                  <integer>115</integer>
                  <key>y</key>
                  <integer>270</integer>
                </dict>
              </array>
            </dict>
            <dict>
              <key>points</key>
              <array>
                <dict>
                  <key>segmentType</key>
                  <string>line</string>
                  <key>smooth</key>
                  <integer>0</integer>
                  <key>x</key>
                  <integer>124</integer>
                  <key>y</key>
                  <integer>270</integer>
                </dict>
                <dict>
                  <key>segmentType</key>
                  <string>line</string>
                  <key>smooth</key>
                  <integer>0</integer>
                  <key>x</key>
                  <integer>115</integer>
                  <key>y</key>
                  <integer>270</integer>
                </dict>
                <dict>
                  <key>segmentType</key>
                  <string>line</string>
                  <key>smooth</key>
                  <integer>0</integer>
                  <key>x</key>
                  <integer>4</integer>
                  <key>y</key>
                  <integer>600</integer>
                </dict>
                <dict>
                  <key>segmentType</key>
                  <string>line</string>
                  <key>smooth</key>
                  <integer>0</integer>
                  <key>x</key>
                  <integer>83</integer>
                  <key>y</key>
                  <integer>600</integer>
                </dict>
                <dict>
                  <key>segmentType</key>
                  <string>line</string>
                  <key>smooth</key>
                  <integer>1</integer>
                  <key>x</key>
                  <integer>116</integer>
                  <key>y</key>
                  <integer>477</integer>
                </dict>
                <dict>
                  <key>segmentType</key>
                  <string>line</string>
                  <key>smooth</key>
                  <integer>1</integer>
                  <key>x</key>
                  <integer>140</integer>
                  <key>y</key>
                  <integer>371</integer>
                </dict>
                <dict>
                  <key>segmentType</key>
                  <string>line</string>
                  <key>smooth</key>
                  <integer>0</integer>
                  <key>x</key>
                  <integer>151</integer>
                  <key>y</key>
                  <integer>371</integer>
                </dict>
                <dict>
                  <key>segmentType</key>
                  <string>line</string>
                  <key>smooth</key>
                  <integer>0</integer>
                  <key>x</key>
                  <integer>260</integer>
                  <key>y</key>
                  <integer>0</integer>
                </dict>
                <dict>
                  <key>segmentType</key>
                  <string>line</string>
                  <key>smooth</key>
                  <integer>0</integer>
                  <key>x</key>
                  <integer>181</integer>
                  <key>y</key>
                  <integer>0</integer>
                </dict>
                <dict>
                  <key>segmentType</key>
                  <string>line</string>
                  <key>smooth</key>
                  <integer>1</integer>
                  <key>x</key>
                  <integer>148</integer>
                  <key>y</key>
                  <integer>139</integer>
                </dict>
              </array>
            </dict>
            <dict>
              <key>points</key>
              <array>
                <dict>
                  <key>segmentType</key>
                  <string>line</string>
                  <key>smooth</key>
                  <integer>0</integer>
                  <key>x</key>
                  <integer>174</integer>
                  <key>y</key>
                  <integer>600</integer>
                </dict>
                <dict>
                  <key>segmentType</key>
                  <string>line</string>
                  <key>smooth</key>
                  <integer>0</integer>
                  <key>x</key>
                  <integer>258</integer>
                  <key>y</key>
                  <integer>600</integer>
                </dict>
                <dict>
                  <key>segmentType</key>
                  <string>line</string>
                  <key>smooth</key>
                  <integer>0</integer>
                  <key>x</key>
                  <integer>147</integer>
                  <key>y</key>
                  <integer>277</integer>
                </dict>
                <dict>
                  <key>segmentType</key>
                  <string>line</string>
                  <key>smooth</key>
                  <integer>0</integer>
                  <key>x</key>
                  <integer>151</integer>
                  <key>y</key>
                  <integer>371</integer>
                </dict>
              </array>
            </dict>
          </array>
          <key>lib</key>
          <dict>
          </dict>
          <key>name</key>
          <string>X</string>
          <key>unicodes</key>
          <array>
          </array>
          <key>width</key>
          <integer>265</integer>
        </dict>
      </dict>
      <key>public.markColor</key>
      <string>0,0,1,1</string>
    </dict>
  </lib>
</glyph>
