<?xml version="1.0" encoding="UTF-8"?>
<glyph name="zcaron.2" format="1">
  <advance width="227"/>
  <outline>
    <component base="z.2"/>
    <component base="caron" xOffset="-3"/>
  </outline>
  <lib>
    <dict>
      <key>com.schriftgestaltung.Glyphs.ComponentInfo</key>
      <array>
        <dict>
          <key>alignment</key>
          <integer>-1</integer>
          <key>index</key>
          <integer>0</integer>
          <key>name</key>
          <string>z.2</string>
        </dict>
        <dict>
          <key>alignment</key>
          <integer>-1</integer>
          <key>index</key>
          <integer>1</integer>
          <key>name</key>
          <string>caron</string>
        </dict>
      </array>
      <key>com.schriftgestaltung.Glyphs.lastChange</key>
      <string>2019-04-26 20:29:54 +0000</string>
    </dict>
  </lib>
</glyph>
